C:\Users\Arnaud Labarre\IdeaProjects\tpUML\src\main\java\com\example\tpuml\gestionAgenda\model\Agenda.java
C:\Users\Arnaud Labarre\IdeaProjects\tpUML\src\main\java\com\example\tpuml\gestionAgenda\model\Adress.java
C:\Users\Arnaud Labarre\IdeaProjects\tpUML\src\main\java\com\example\tpuml\gestionAgenda\model\User.java
C:\Users\Arnaud Labarre\IdeaProjects\tpUML\src\main\java\com\example\tpuml\gestionAgenda\model\Phone.java
C:\Users\Arnaud Labarre\IdeaProjects\tpUML\src\main\java\com\example\tpuml\gestionAgenda\model\Contact.java
C:\Users\Arnaud Labarre\IdeaProjects\tpUML\src\main\java\com\example\tpuml\gestionAgenda\model\Email.java
C:\Users\Arnaud Labarre\IdeaProjects\tpUML\src\main\java\com\example\tpuml\gestionAgenda\model\ContactDetail.java
C:\Users\Arnaud Labarre\IdeaProjects\tpUML\src\main\java\com\example\tpuml\gestionAgenda\model\Website.java
C:\Users\Arnaud Labarre\IdeaProjects\tpUML\src\main\java\com\example\tpuml\gestionAgenda\TpUmlApplication.java
